xgboost • dwc.wells
…
  well_ids <- unique(df$well_id)
  train_ids <- sample(well_ids, 0.8 * length(well_ids))
  test_ids <- setdiff(well_ids, train_ids)
  df_training <- df %>%
    dplyr::filter(well_id %in% train_ids) %>%
    dplyr::select(-well_id)
  df_test <- df %>%
    dplyr::filter(well_id %in% test_ids) %>%
    dplyr::select(-well_id)
  
}

tibble::as_tibble(df_training)
#> # A tibble: 5,044 × 26
#>    Qs_rel well_age_years construction_year screen_material diameter
#>     <dbl>          <dbl>             <dbl> <fct>              <dbl>
#>  1   31.5           42.3              1970 Unbekannt            300
#>  2   20.7           44.2              1970 Unbekannt            300
#>  3   16.3           47.9              1970 Unbekannt            300
#>  4   22.4           47.9              1970 Unbekannt            300
#>  5   25.6           25.8              1993 Stahl                393
#>  6   19.0           16.2              1993 Stahl                393
#>  7   28.9           16.3              1993 Stahl                393
#>  8   37.5           15.9              1993 Stahl                393
#>  9   35.1           24.4              1993 Stahl                393
#> 10   30.4           20.7              1993 Stahl                393
#> # … with 5,034 more rows, and 21 more variables: drilling_method <fct>,
#> #   admissible_discharge <dbl>, operational_start.Qs <dbl>,
#> #   aquifer_coverage <fct>, W_static.sd <dbl>, surface_water.distance <fct>,
#> #   n_rehab <int>, time_since_rehab_years <dbl>, volume_m3_d.mean <dbl>,
#> #   volume_m3_d.cv <dbl>, quality.EC <dbl>, quality.DO <dbl>,
#> #   quality.Temp <dbl>, quality.pH <dbl>, quality.Redox <dbl>,
#> #   quality.Fe_tot <dbl>, quality.Mn <dbl>, quality.NO3 <dbl>, …
tibble::as_tibble(df_test)
#> # A tibble: 1,264 × 26
#>    Qs_rel well_age_years construction_year screen_material diameter
#>     <dbl>          <dbl>             <dbl> <fct>              <dbl>
#>  1   97.8          23.2               1970 Unbekannt            300
#>  2   78.5          29.5               1970 Unbekannt            300
#>  3   52.2          35.0               1970 Unbekannt            300
#>  4   27.2          42.9               1970 Unbekannt            300
#>  5   35.1          20.9               1993 Stahl                393
#>  6   82.7           6.07              1993 Stahl                393
#>  7   26.8          20.9               1993 Stahl                393
#>  8   16.9          24.4               1993 Stahl                393
#>  9   56.1          16.5               1993 Stahl                393
#> 10   68.5           6.11              1993 Stahl                393
#> # … with 1,254 more rows, and 21 more variables: drilling_method <fct>,
#> #   admissible_discharge <dbl>, operational_start.Qs <dbl>,
#> #   aquifer_coverage <fct>, W_static.sd <dbl>, surface_water.distance <fct>,
#> #   n_rehab <int>, time_since_rehab_years <dbl>, volume_m3_d.mean <dbl>,
#> #   volume_m3_d.cv <dbl>, quality.EC <dbl>, quality.DO <dbl>,
#> #   quality.Temp <dbl>, quality.pH <dbl>, quality.Redox <dbl>,
#> #   quality.Fe_tot <dbl>, quality.Mn <dbl>, quality.NO3 <dbl>, …
…
